%YAML 1.1
%TAG !u! tag:unity3d.com,2011:
--- !u!1045 &1
EditorBuildSettings:
  m_ObjectHideFlags: 0
  serializedVersion: 2
  m_Scenes:
  - enabled: 1
    path: Assets/Scenes/Menu.unity
    guid: c476751d41f4ec24d9b765b96aaa5d0a
  - enabled: 1
    path: Assets/Scenes/Gameplay.unity
    guid: a4b96ad7a65484fd4a83cb97540eee50
  m_configObjects: {}
